013
025
027
028
035
047
049
051
052
060
061
064
068
071
072
077
084
085
087
098
103
110
115
117
124
125
128
134
135
143
153
154
155
160
161
173
175
176
182
183
185
187
190
191
200
204
210
213
221
226
243
248
250
252
262
268
269
272
279
283
286
287
291
299
304
306
311
314
325
327
330
350
356
357
364
368
369
376
385
